%YAML 1.1
%TAG !u! tag:unity3d.com,2011:
--- !u!114 &11400000
MonoBehaviour:
  m_ObjectHideFlags: 0
  m_PrefabParentObject: {fileID: 0}
  m_PrefabInternal: {fileID: 0}
  m_GameObject: {fileID: 0}
  m_Enabled: 1
  m_EditorHideFlags: 0
  m_Script: {fileID: 11500000, guid: 765f5bd7978f7314fb5341477cb527aa, type: 3}
  m_Name: Sacar_Al_Perro
  m_EditorClassIdentifier: 
  character: 1
  text: Sacas al perro?
  choiceA:
    text: Si
    response: Seguro que Fido lo goza
    condition:
      stat: 0
      comparer: 0
      value: 0
    successEvent: {fileID: 0}
    failEvent: {fileID: 0}
    turnsDelay: 0
  choiceB:
    text: No
    response: "Vaya due\xF1o hijoputa"
    condition:
      stat: 0
      comparer: 0
      value: 0
    successEvent: {fileID: 0}
    failEvent: {fileID: 0}
    turnsDelay: 0
